Sorted array is:
0
1
1
2
2
2
2
3
4
4
5
5
6
7
9
12
13
14
15
16
16
16
16
17
17
18
18
18
19
19
20
21
21
21
22
22
23
24
24
24
24
25
25
26
28
28
28
29
30
30
31
32
32
32
33
33
33
33
33
33
34
36
38
38
38
38
39
39
41
41
41
42
42
44
44
45
45
45
45
46
46
46
47
48
48
49
49
50
51
51
52
52
52
52
52
52
52
53
54
55
55
55
55
56
57
57
57
58
58
58
59
59
59
60
60
60
61
62
62
63
64
64
64
64
65
65
65
66
66
66
66
66
67
67
67
69
69
69
70
71
71
71
71
72
72
74
74
75
75
76
77
77
78
79
80
81
81
82
82
82
82
82
83
83
83
83
84
84
84
85
85
86
87
87
87
88
88
89
89
89
90
93
94
94
94
95
95
96
96
96
96
96
97
97
98
98
98
99
99
99
0.0037920475006103516
